542
49C:\Backend\node_modules\has-symbols\test\tests.js133106201270044497 0
32C:\Backend\node_modules\statuses133106201269122676 1
30C:\Backend\node_modules\cookie133106201269476599 1
23C:\Backend\package.json133106236155868827 0
42C:\Backend\node_modules\.package-lock.json133106236156068712 0
38C:\Backend\node_modules\object-inspect133106201271787113 1
28C:\Backend\package-lock.json133106236155848853 0
21C:\Backend\.gitignore133106251121045452 0
40C:\Backend\node_modules\unpipe\README.md133106201264771979 0
35C:\Backend\node_modules\on-finished133106201268688126 1
37C:\Backend\node_modules\get-intrinsic133106201269874590 1
43C:\Backend\node_modules\ipaddr.js\README.md133106201267339092 0
31C:\Backend\node_modules\destroy133106201267179194 1
40C:\Backend\node_modules\mime-db\index.js133106201264232144 0
15C:\Backend\dist133125248300990900 1
36C:\Backend\node_modules\side-channel133106201270044497 1
21C:\Backend\index.html133106199708129328 0
58C:\Backend\node_modules\iconv-lite\encodings\sbcs-codec.js133106201270044497 0
38C:\Backend\node_modules\setprototypeof133106201268852847 1
19C:\Backend\index.js133125224345406386 0
40C:\Backend\node_modules\parseurl\LICENSE133106201267957177 0
37C:\Backend\node_modules\function-bind133106201270074470 1
36C:\Backend\node_modules\content-type133106201268962779 1
46C:\Backend\node_modules\object-inspect\example133106201271112076 1
45C:\Backend\node_modules\parseurl\package.json133106201263838457 0
23C:\Backend\node_modules133106250495096270 1
47C:\Backend\node_modules\path-to-regexp\index.js133106201266999293 0
37C:\Backend\node_modules\.bin\mime.cmd133106201272353018 0
38C:\Backend\node_modules\path-to-regexp133106201268658146 1
28C:\Backend\node_modules\.bin133106201272353018 1
31C:\Backend\node_modules\mime-db133106201270084478 1
44C:\Backend\node_modules\mime-types\README.md133106201268902805 0
31C:\Backend\node_modules\accepts133106201269002747 1
37C:\Backend\node_modules\array-flatten133106201268147078 1
34C:\Backend\node_modules\proxy-addr133106201268802834 1
41C:\Backend\node_modules\mime\package.json133106201259393749 0
35C:\Backend\node_modules\http-errors133106201269082713 1
32C:\Backend\node_modules\inherits133106201268027135 1
33C:\Backend\node_modules\forwarded133106201267847237 1
31C:\Backend\node_modules\qs\test133106201270838334 1
35C:\Backend\node_modules\body-parser133106201270618474 1
36C:\Backend\node_modules\range-parser133106201268668134 1
45C:\Backend\node_modules\safe-buffer\README.md133106201267319101 0
41C:\Backend\node_modules\merge-descriptors133106201268822862 1
43C:\Backend\node_modules\body-parser\LICENSE133106201264811959 0
29C:\Backend\node_modules\bytes133106201268331769 1
54C:\Backend\node_modules\safer-buffer\Porting-Buffer.md133106201268321778 0
45C:\Backend\node_modules\safer-buffer\tests.js133106201269974546 0
28C:\Backend\node_modules\mime133106201270044497 1
33C:\Backend\node_modules\call-bind133106201270392842 1
46C:\Backend\node_modules\safe-buffer\index.d.ts133106201268538227 0
43C:\Backend\node_modules\content-disposition133106201269062714 1
40C:\Backend\node_modules\cookie-signature133106201268832854 1
28C:\Backend\node_modules\cors133106236154984075 1
41C:\Backend\node_modules\parseurl\index.js133106201267009286 0
47C:\Backend\node_modules\ipaddr.js\lib\ipaddr.js133106201268718122 0
29C:\Backend\node_modules\debug133106201270538476 1
33C:\Backend\node_modules\encodeurl133106201268842857 1
44C:\Backend\node_modules\safe-buffer\index.js133106201263898411 0
28C:\Backend\node_modules\depd133106201269379460 1
47C:\Backend\node_modules\finalhandler\HISTORY.md133106201268455393 0
32C:\Backend\node_modules\ee-first133106201266989323 1
41C:\Backend\node_modules\etag\package.json133106201264362071 0
35C:\Backend\node_modules\escape-html133106201268301747 1
54C:\Backend\node_modules\object-inspect\test\element.js133106201270094462 0
48C:\Backend\node_modules\escape-html\package.json133106201264362071 0
32C:\Backend\node_modules\raw-body133106201269684722 1
37C:\Backend\node_modules\has\README.md133106201265506715 0
28C:\Backend\node_modules\etag133106201268922799 1
32C:\Backend\node_modules\parseurl133106201268658146 1
46C:\Backend\node_modules\express\lib\express.js133106201268027135 0
36C:\Backend\node_modules\finalhandler133106201269339470 1
62C:\Backend\node_modules\iconv-lite\encodings\tables\cp936.json133106201270938277 0
31C:\Backend\node_modules\express133106201271261994 1
36C:\Backend\node_modules\serve-static133106201268698132 1
26C:\Backend\node_modules\qs133106201271281975 1
41C:\Backend\node_modules\qs\lib\formats.js133106201268117078 0
34C:\Backend\node_modules\iconv-lite133106201272016966 1
29C:\Backend\node_modules\fresh133106201268802834 1
41C:\Backend\node_modules\accepts\README.md133106201269132705 0
27C:\Backend\node_modules\has133106201267797277 1
48C:\Backend\node_modules\has-symbols\package.json133106201270294337 0
35C:\Backend\node_modules\has-symbols133106201270558515 1
44C:\Backend\node_modules\accepts\package.json133106201267537467 0
33C:\Backend\node_modules\ipaddr.js133106201267817270 1
35C:\Backend\node_modules\media-typer133106201268415376 1
44C:\Backend\node_modules\destroy\package.json133106201266141197 0
31C:\Backend\node_modules\methods133106201268668134 1
43C:\Backend\node_modules\escape-html\LICENSE133106201266612367 0
26C:\Backend\node_modules\ms133106201267159200 1
34C:\Backend\node_modules\mime-types133106201268778095 1
49C:\Backend\node_modules\iconv-lite\lib\index.d.ts133106201272076940 0
34C:\Backend\node_modules\negotiator133106201270104461 1
37C:\Backend\node_modules\object-assign133106236154904122 1
38C:\Backend\node_modules\negotiator\lib133106201269309484 1
36C:\Backend\node_modules\safer-buffer133106201269744679 1
41C:\Backend\node_modules\send\package.json133106201266989323 0
51C:\Backend\node_modules\cookie-signature\.npmignore133106201266201171 0
35C:\Backend\node_modules\safe-buffer133106201268027135 1
28C:\Backend\node_modules\send133106201269279497 1
37C:\Backend\node_modules\ms\license.md133106201266121198 0
36C:\Backend\node_modules\toidentifier133106201267847237 1
39C:\Backend\node_modules\qs\lib\utils.js133106201270808353 0
46C:\Backend\node_modules\express\lib\request.js133106201270442846 0
31C:\Backend\node_modules\type-is133106201269082713 1
30C:\Backend\node_modules\unpipe133106201268067115 1
30C:\Backend\node_modules\qs\lib133106201270768372 1
35C:\Backend\node_modules\utils-merge133106201268588181 1
53C:\Backend\node_modules\call-bind\.github\FUNDING.yml133106201270472820 0
28C:\Backend\node_modules\vary133106201268331769 1
46C:\Backend\node_modules\toidentifier\README.md133106201268097123 0
39C:\Backend\node_modules\vary\HISTORY.md133106201268618176 0
37C:\Backend\node_modules\vary\index.js133106201267707329 0
54C:\Backend\node_modules\object-inspect\test\lowbyte.js133106201271241991 0
36C:\Backend\node_modules\vary\LICENSE133106201266692320 0
50C:\Backend\node_modules\side-channel\test\index.js133106201269132705 0
41C:\Backend\node_modules\vary\package.json133106201263337670 0
38C:\Backend\node_modules\vary\README.md133106201264931897 0
46C:\Backend\node_modules\utils-merge\.npmignore133106201264941891 0
43C:\Backend\node_modules\on-finished\LICENSE133106201263868451 0
44C:\Backend\node_modules\utils-merge\index.js133106201268728098 0
43C:\Backend\node_modules\qs\lib\stringify.js133106201270558515 0
43C:\Backend\node_modules\utils-merge\LICENSE133106201267907209 0
41C:\Backend\node_modules\send\node_modules133106201252965948 1
38C:\Backend\node_modules\etag\README.md133106201266041255 0
48C:\Backend\node_modules\utils-merge\package.json133106201263678481 0
45C:\Backend\node_modules\utils-merge\README.md133106201266989323 0
41C:\Backend\node_modules\unpipe\HISTORY.md133106201268301747 0
45C:\Backend\node_modules\side-channel\index.js133106201268311793 0
32C:\Backend\node_modules\mime\src133106201269834619 1
39C:\Backend\node_modules\unpipe\index.js133106201267477471 0
39C:\Backend\node_modules\qs\lib\index.js133106201268842857 0
38C:\Backend\node_modules\unpipe\LICENSE133106201266161206 0
46C:\Backend\node_modules\object-assign\index.js133106236154824169 0
46C:\Backend\node_modules\express\lib\middleware133106201270114440 1
43C:\Backend\node_modules\unpipe\package.json133106201260403097 0
52C:\Backend\node_modules\object-inspect\test\fakes.js133106201270482822 0
39C:\Backend\node_modules\mime\.npmignore133106201263748501 0
44C:\Backend\node_modules\get-intrinsic\.nycrc133106201263898411 0
42C:\Backend\node_modules\type-is\HISTORY.md133106201266582334 0
58C:\Backend\node_modules\iconv-lite\encodings\dbcs-codec.js133106201268738099 0
40C:\Backend\node_modules\type-is\index.js133106201267787286 0
46C:\Backend\node_modules\path-to-regexp\LICENSE133106201265386787 0
50C:\Backend\node_modules\cookie-signature\Readme.md133106201268982788 0
42C:\Backend\node_modules\debug\CHANGELOG.md133106201270482822 0
39C:\Backend\node_modules\type-is\LICENSE133106201268698132 0
41C:\Backend\node_modules\debug\src\node.js133106201270948260 0
31C:\Backend\node_modules\qs\dist133106201270034494 1
43C:\Backend\node_modules\call-bind\README.md133106201270314320 0
33C:\Backend\node_modules\.bin\mime133106201272353018 0
44C:\Backend\node_modules\type-is\package.json133106201264871928 0
41C:\Backend\node_modules\type-is\README.md133106201269172647 0
42C:\Backend\node_modules\debug\package.json133106201264422032 0
47C:\Backend\node_modules\toidentifier\HISTORY.md133106201267189177 0
44C:\Backend\node_modules\has-symbols\index.js133106201269072720 0
45C:\Backend\node_modules\toidentifier\index.js133106201264242141 0
26C:\Backend\dist\index.html133125248300900970 0
44C:\Backend\node_modules\toidentifier\LICENSE133106201259613598 0
49C:\Backend\node_modules\toidentifier\package.json133106201265876916 0
43C:\Backend\node_modules\statuses\codes.json133106201266999293 0
45C:\Backend\node_modules\object-assign\license133106236154864163 0
43C:\Backend\node_modules\statuses\HISTORY.md133106201268758096 0
41C:\Backend\node_modules\statuses\index.js133106201265406772 0
40C:\Backend\node_modules\cookie\README.md133106201269172647 0
41C:\Backend\node_modules\express\Readme.md133106201271281975 0
40C:\Backend\node_modules\statuses\LICENSE133106201263708483 0
43C:\Backend\node_modules\forwarded\README.md133106201268077106 0
45C:\Backend\node_modules\statuses\package.json133106201267927194 0
42C:\Backend\node_modules\statuses\README.md133106201269369462 0
39C:\Backend\node_modules\cookie\index.js133106201266201171 0
42C:\Backend\node_modules\fresh\package.json133106201264322121 0
50C:\Backend\node_modules\side-channel\.eslintignore133106201259523651 0
46C:\Backend\node_modules\side-channel\.eslintrc133106201263928397 0
46C:\Backend\node_modules\object-inspect\LICENSE133106201265536699 0
57C:\Backend\node_modules\object-inspect\example\inspect.js133106201271122063 0
49C:\Backend\node_modules\setprototypeof\index.d.ts133106201264951881 0
44C:\Backend\node_modules\side-channel\.github133106201270114440 1
43C:\Backend\node_modules\side-channel\.nycrc133106201265556693 0
49C:\Backend\node_modules\side-channel\CHANGELOG.md133106201269794647 0
62C:\Backend\node_modules\iconv-lite\encodings\tables\cp949.json133106201271421679 0
43C:\Backend\node_modules\debug\karma.conf.js133106201269102692 0
44C:\Backend\node_modules\side-channel\LICENSE133106201267419058 0
49C:\Backend\node_modules\side-channel\package.json133106201269516578 0
39C:\Backend\node_modules\debug\.eslintrc133106201269664726 0
51C:\Backend\node_modules\object-inspect\CHANGELOG.md133106201271767119 0
54C:\Backend\node_modules\object-inspect\test\inspect.js133106201271212008 0
46C:\Backend\node_modules\side-channel\README.md133106201269954539 0
57C:\Backend\node_modules\send\node_modules\ms\package.json133106201266672333 0
53C:\Backend\node_modules\object-inspect\test\number.js133106201271281975 0
41C:\Backend\node_modules\side-channel\test133106201268972770 1
42C:\Backend\node_modules\parseurl\README.md133106201268778095 0
56C:\Backend\node_modules\side-channel\.github\FUNDING.yml133106201270174410 0
47C:\Backend\node_modules\setprototypeof\index.js133106201266672333 0
46C:\Backend\node_modules\setprototypeof\LICENSE133106201267667364 0
51C:\Backend\node_modules\setprototypeof\package.json133106201263708483 0
44C:\Backend\node_modules\safer-buffer\LICENSE133106201266141197 0
48C:\Backend\node_modules\setprototypeof\README.md133106201268568208 0
46C:\Backend\node_modules\content-type\README.md133106201266101210 0
43C:\Backend\node_modules\setprototypeof\test133106201269122676 1
52C:\Backend\node_modules\setprototypeof\test\index.js133106201269289519 0
47C:\Backend\node_modules\serve-static\HISTORY.md133106201268067115 0
37C:\Backend\node_modules\send\index.js133106201265396785 0
52C:\Backend\node_modules\body-parser\lib\types\raw.js133106201268738099 0
45C:\Backend\node_modules\serve-static\index.js133106201265011842 0
49C:\Backend\node_modules\object-inspect\test\fn.js133106201270648444 0
44C:\Backend\node_modules\serve-static\LICENSE133106201263728517 0
59C:\Backend\node_modules\object-inspect\package-support.json133106201271497287 0
49C:\Backend\node_modules\serve-static\package.json133106201266762296 0
46C:\Backend\node_modules\serve-static\README.md133106201268852847 0
39C:\Backend\node_modules\send\HISTORY.md133106201267927194 0
36C:\Backend\node_modules\send\LICENSE133106201263688528 0
54C:\Backend\node_modules\object-inspect\test-core-js.js133106201271351917 0
38C:\Backend\node_modules\send\README.md133106201268882821 0
40C:\Backend\node_modules\send\SECURITY.md133106201269359479 0
53C:\Backend\node_modules\cookie-signature\package.json133106201264821960 0
48C:\Backend\node_modules\body-parser\package.json133106201270104461 0
44C:\Backend\node_modules\send\node_modules\ms133106201268321778 1
38C:\Backend\node_modules\call-bind\test133106201269604752 1
53C:\Backend\node_modules\send\node_modules\ms\index.js133106201264931897 0
47C:\Backend\node_modules\call-bind\test\index.js133106201269684722 0
55C:\Backend\node_modules\send\node_modules\ms\license.md133106201267697354 0
54C:\Backend\node_modules\send\node_modules\ms\readme.md133106201268588181 0
45C:\Backend\node_modules\get-intrinsic\LICENSE133106201265496736 0
43C:\Backend\node_modules\negotiator\index.js133106201268237003 0
42C:\Backend\node_modules\has-symbols\.nycrc133106201263898411 0
49C:\Backend\node_modules\safer-buffer\dangerous.js133106201264781989 0
60C:\Backend\node_modules\object-inspect\test\indent-option.js133106201270888304 0
49C:\Backend\node_modules\safer-buffer\package.json133106201259603593 0
46C:\Backend\node_modules\safer-buffer\Readme.md133106201269279497 0
45C:\Backend\node_modules\safer-buffer\safer.js133106201269594758 0
43C:\Backend\node_modules\raw-body\HISTORY.md133106201268518237 0
57C:\Backend\node_modules\has-symbols\test\shams\core-js.js133106201267637378 0
43C:\Backend\node_modules\safe-buffer\LICENSE133106201259383730 0
43C:\Backend\node_modules\mime-types\index.js133106201264961899 0
38C:\Backend\node_modules\depd\Readme.md133106201269152671 0
48C:\Backend\node_modules\safe-buffer\package.json133106201265486723 0
43C:\Backend\node_modules\raw-body\index.d.ts133106201269774659 0
41C:\Backend\node_modules\raw-body\index.js133106201265536699 0
40C:\Backend\node_modules\raw-body\LICENSE133106201263357678 0
45C:\Backend\node_modules\raw-body\package.json133106201267339092 0
42C:\Backend\node_modules\raw-body\README.md133106201269269522 0
39C:\Backend\node_modules\cors\HISTORY.md133106236154864163 0
44C:\Backend\node_modules\raw-body\SECURITY.md133106201269574774 0
52C:\Backend\node_modules\merge-descriptors\HISTORY.md133106201268952788 0
40C:\Backend\node_modules\accepts\index.js133106201266241125 0
47C:\Backend\node_modules\range-parser\HISTORY.md133106201265466736 0
50C:\Backend\node_modules\merge-descriptors\index.js133106201268207022 0
45C:\Backend\node_modules\range-parser\index.js133106201267059281 0
49C:\Backend\node_modules\merge-descriptors\LICENSE133106201267269134 0
44C:\Backend\node_modules\range-parser\LICENSE133106201267987162 0
39C:\Backend\node_modules\ms\package.json133106201260373122 0
54C:\Backend\node_modules\merge-descriptors\package.json133106201264342080 0
46C:\Backend\node_modules\call-bind\CHANGELOG.md133106201270124430 0
49C:\Backend\node_modules\range-parser\package.json133106201263818472 0
49C:\Backend\node_modules\depd\lib\browser\index.js133106201269624741 0
51C:\Backend\node_modules\merge-descriptors\README.md133106201266041255 0
46C:\Backend\node_modules\range-parser\README.md133106201268822862 0
36C:\Backend\node_modules\mime\mime.js133106201267847237 0
40C:\Backend\node_modules\qs\.editorconfig133106201263808485 0
36C:\Backend\node_modules\qs\.eslintrc133106201265406772 0
34C:\Backend\node_modules\qs\.github133106201271291974 1
33C:\Backend\node_modules\qs\.nycrc133106201266989323 0
39C:\Backend\node_modules\qs\CHANGELOG.md133106201271142058 0
37C:\Backend\node_modules\qs\LICENSE.md133106201271202025 0
39C:\Backend\node_modules\debug\README.md133106201267617386 0
39C:\Backend\node_modules\accepts\LICENSE133106201264831951 0
66C:\Backend\node_modules\iconv-lite\encodings\tables\gbk-added.json133106201271787113 0
47C:\Backend\node_modules\iconv-lite\lib\index.js133106201272163645 0
39C:\Backend\node_modules\qs\package.json133106201271052076 0
36C:\Backend\node_modules\qs\README.md133106201271261994 0
52C:\Backend\node_modules\iconv-lite\encodings\utf7.js133106201271996975 0
46C:\Backend\node_modules\encodeurl\package.json133106201264402045 0
39C:\Backend\node_modules\etag\HISTORY.md133106201269062714 0
40C:\Backend\node_modules\qs\test\parse.js133106201269834619 0
47C:\Backend\node_modules\body-parser\lib\read.js133106201269551453 0
49C:\Backend\node_modules\path-to-regexp\History.md133106201268758096 0
44C:\Backend\node_modules\qs\test\stringify.js133106201270728403 0
40C:\Backend\node_modules\qs\test\utils.js133106201270908307 0
37C:\Backend\node_modules\etag\index.js133106201268475399 0
39C:\Backend\node_modules\qs\lib\parse.js133106201269426616 0
37C:\Backend\node_modules\qs\dist\qs.js133106201270452837 0
35C:\Backend\node_modules\ms\index.js133106201264462015 0
47C:\Backend\node_modules\function-bind\.eslintrc133106201269574774 0
46C:\Backend\node_modules\qs\.github\FUNDING.yml133106201271311949 0
46C:\Backend\node_modules\http-errors\HISTORY.md133106201268698132 0
45C:\Backend\node_modules\proxy-addr\HISTORY.md133106201268197040 0
44C:\Backend\node_modules\http-errors\index.js133106201266582334 0
43C:\Backend\node_modules\proxy-addr\index.js133106201265426772 0
42C:\Backend\node_modules\proxy-addr\LICENSE133106201263848440 0
47C:\Backend\node_modules\express\lib\response.js133106201270598475 0
43C:\Backend\node_modules\http-errors\LICENSE133106201264302121 0
48C:\Backend\node_modules\http-errors\package.json133106201267587407 0
47C:\Backend\node_modules\proxy-addr\package.json133106201267029282 0
45C:\Backend\node_modules\object-inspect\.nycrc133106201263938385 0
45C:\Backend\node_modules\http-errors\README.md133106201269339470 0
43C:\Backend\node_modules\has-symbols\.github133106201270598475 1
44C:\Backend\node_modules\proxy-addr\README.md133106201268902805 0
51C:\Backend\node_modules\path-to-regexp\package.json133106201263798469 0
48C:\Backend\node_modules\path-to-regexp\Readme.md133106201267957177 0
40C:\Backend\node_modules\call-bind\.nycrc133106201265516712 0
43C:\Backend\node_modules\parseurl\HISTORY.md133106201265426772 0
49C:\Backend\node_modules\has-symbols\test\index.js133106201269574774 0
46C:\Backend\node_modules\on-finished\HISTORY.md133106201268007147 0
44C:\Backend\node_modules\on-finished\index.js133106201265426772 0
51C:\Backend\node_modules\express\lib\router\layer.js133106201270024512 0
48C:\Backend\node_modules\on-finished\package.json133106201267039299 0
45C:\Backend\node_modules\on-finished\README.md133106201268992772 0
53C:\Backend\node_modules\iconv-lite\encodings\index.js133106201269584769 0
48C:\Backend\node_modules\object-inspect\.eslintrc133106201259553625 0
39C:\Backend\node_modules\depd\History.md133106201266061246 0
40C:\Backend\node_modules\methods\index.js133106201267987162 0
46C:\Backend\node_modules\object-inspect\.github133106201271797101 1
47C:\Backend\node_modules\object-inspect\index.js133106201271092078 0
35C:\Backend\dist\Backend.3464ddca.js133125248300910959 0
51C:\Backend\node_modules\object-inspect\package.json133106201271577237 0
54C:\Backend\node_modules\object-inspect\readme.markdown133106201271617274 0
43C:\Backend\node_modules\object-inspect\test133106201271421679 1
54C:\Backend\node_modules\object-inspect\util.inspect.js133106201271391684 0
52C:\Backend\node_modules\object-inspect\example\fn.js133106201270568498 0
45C:\Backend\node_modules\content-type\index.js133106201268538227 0
54C:\Backend\node_modules\array-flatten\array-flatten.js133106201268435415 0
42C:\Backend\node_modules\inherits\README.md133106201268256995 0
38C:\Backend\node_modules\cookie\LICENSE133106201264821960 0
53C:\Backend\node_modules\object-inspect\test\bigint.js133106201268548204 0
50C:\Backend\node_modules\object-inspect\test\err.js133106201270324309 0
36C:\Backend\node_modules\cors\LICENSE133106236154904122 0
51C:\Backend\node_modules\object-inspect\test\browser133106201269844614 1
55C:\Backend\node_modules\object-inspect\test\circular.js133106201269436608 0
51C:\Backend\node_modules\object-inspect\test\deep.js133106201269664726 0
50C:\Backend\node_modules\object-inspect\test\has.js133106201270708408 0
52C:\Backend\node_modules\object-inspect\test\holes.js133106201270758376 0
57C:\Backend\node_modules\object-inspect\test\quoteStyle.js133106201271331945 0
41C:\Backend\node_modules\encodeurl\LICENSE133106201267329096 0
58C:\Backend\node_modules\object-inspect\test\toStringTag.js133106201271371664 0
52C:\Backend\node_modules\object-inspect\test\undef.js133106201271381702 0
53C:\Backend\node_modules\object-inspect\test\values.js133106201271477289 0
39C:\Backend\node_modules\methods\LICENSE133106201267039299 0
58C:\Backend\node_modules\object-inspect\test\browser\dom.js133106201269894578 0
44C:\Backend\node_modules\content-type\LICENSE133106201267419058 0
44C:\Backend\node_modules\escape-html\index.js133106201267657374 0
53C:\Backend\node_modules\object-inspect\example\all.js133106201267419058 0
44C:\Backend\node_modules\cors\CONTRIBUTING.md133106236154804182 0
58C:\Backend\node_modules\object-inspect\example\circular.js133106201269072720 0
44C:\Backend\node_modules\encodeurl\HISTORY.md133106201268962779 0
58C:\Backend\node_modules\object-inspect\.github\FUNDING.yml133106201271817089 0
48C:\Backend\node_modules\finalhandler\SECURITY.md133106201269476599 0
50C:\Backend\node_modules\object-assign\package.json133106236154574337 0
47C:\Backend\node_modules\object-assign\readme.md133106236154974076 0
45C:\Backend\node_modules\negotiator\HISTORY.md133106201270024512 0
42C:\Backend\node_modules\negotiator\LICENSE133106201263748501 0
45C:\Backend\node_modules\get-intrinsic\.github133106201269954539 1
47C:\Backend\node_modules\negotiator\package.json133106201269704694 0
33C:\Backend\node_modules\debug\src133106201270878309 1
44C:\Backend\node_modules\negotiator\README.md133106201270264348 0
53C:\Backend\node_modules\iconv-lite\encodings\utf16.js133106201271946997 0
49C:\Backend\node_modules\negotiator\lib\charset.js133106201265516712 0
52C:\Backend\node_modules\function-bind\test\.eslintrc133106201270412858 0
50C:\Backend\node_modules\negotiator\lib\encoding.js133106201267309132 0
50C:\Backend\node_modules\negotiator\lib\language.js133106201268962779 0
38C:\Backend\node_modules\bytes\index.js133106201264921893 0
51C:\Backend\node_modules\negotiator\lib\mediaType.js133106201269516578 0
36C:\Backend\node_modules\ms\readme.md133106201267439029 0
46C:\Backend\node_modules\ipaddr.js\package.json133106201259473691 0
51C:\Backend\node_modules\express\lib\router\index.js133106201269555595 0
45C:\Backend\node_modules\mime-types\HISTORY.md133106201268167068 0
42C:\Backend\node_modules\mime-types\LICENSE133106201263337670 0
47C:\Backend\node_modules\mime-types\package.json133106201266692320 0
42C:\Backend\node_modules\cookie\SECURITY.md133106201269555595 0
39C:\Backend\node_modules\mime-db\db.json133106201269397974 0
41C:\Backend\node_modules\methods\README.md133106201265456749 0
42C:\Backend\node_modules\mime-db\HISTORY.md133106201269994510 0
38C:\Backend\node_modules\cors\README.md133106236154974076 0
62C:\Backend\node_modules\iconv-lite\encodings\tables\eucjp.json133106201271677164 0
39C:\Backend\node_modules\mime-db\LICENSE133106201259583605 0
44C:\Backend\node_modules\mime-db\package.json133106201269604752 0
41C:\Backend\node_modules\mime-db\README.md133106201270254363 0
41C:\Backend\node_modules\mime\CHANGELOG.md133106201269319480 0
35C:\Backend\node_modules\mime\cli.js133106201268688126 0
36C:\Backend\node_modules\mime\LICENSE133106201266772273 0
38C:\Backend\node_modules\mime\README.md133106201265326789 0
35C:\Backend\node_modules\express\lib133106201270798361 1
39C:\Backend\node_modules\mime\types.json133106201270284341 0
51C:\Backend\node_modules\iconv-lite\encodings\tables133106201271817089 1
41C:\Backend\node_modules\mime\src\build.js133106201269674718 0
49C:\Backend\node_modules\iconv-lite\lib\streams.js133106201272183611 0
46C:\Backend\node_modules\body-parser\HISTORY.md133106201270412858 0
40C:\Backend\node_modules\mime\src\test.js133106201269884588 0
42C:\Backend\node_modules\methods\HISTORY.md133106201268788066 0
53C:\Backend\node_modules\body-parser\lib\types\text.js133106201269734679 0
44C:\Backend\node_modules\methods\package.json133106201263878452 0
46C:\Backend\node_modules\media-typer\HISTORY.md133106201268628165 0
62C:\Backend\node_modules\iconv-lite\encodings\tables\cp950.json133106201271567242 0
41C:\Backend\node_modules\debug\.travis.yml133106201270364288 0
44C:\Backend\node_modules\media-typer\index.js133106201267747305 0
43C:\Backend\node_modules\media-typer\LICENSE133106201266553623 0
48C:\Backend\node_modules\media-typer\package.json133106201260373122 0
45C:\Backend\node_modules\media-typer\README.md133106201264462015 0
32C:\Backend\node_modules\cors\lib133106236155104011 1
47C:\Backend\node_modules\ipaddr.js\ipaddr.min.js133106201264222118 0
37C:\Backend\node_modules\ipaddr.js\lib133106201269112681 1
59C:\Backend\node_modules\body-parser\lib\types\urlencoded.js133106201269914577 0
41C:\Backend\node_modules\ipaddr.js\LICENSE133106201266101210 0
52C:\Backend\node_modules\ipaddr.js\lib\ipaddr.js.d.ts133106201269329477 0
44C:\Backend\node_modules\inherits\inherits.js133106201266071222 0
39C:\Backend\node_modules\destroy\LICENSE133106201260393113 0
52C:\Backend\node_modules\inherits\inherits_browser.js133106201264442030 0
40C:\Backend\node_modules\inherits\LICENSE133106201267309132 0
45C:\Backend\node_modules\inherits\package.json133106201260043324 0
47C:\Backend\node_modules\iconv-lite\Changelog.md133106201264791980 0
44C:\Backend\node_modules\iconv-lite\encodings133106201271967001 1
38C:\Backend\node_modules\iconv-lite\lib133106201272173616 1
42C:\Backend\node_modules\iconv-lite\LICENSE133106201266161206 0
47C:\Backend\node_modules\iconv-lite\package.json133106201260413113 0
32C:\Backend\node_modules\has\test133106201268207022 1
44C:\Backend\node_modules\iconv-lite\README.md133106201267497468 0
31C:\Backend\node_modules\has\src133106201267079284 1
54C:\Backend\node_modules\iconv-lite\lib\bom-handling.js133106201272026955 0
53C:\Backend\node_modules\iconv-lite\lib\extend-node.js133106201272056937 0
57C:\Backend\node_modules\iconv-lite\encodings\dbcs-data.js133106201269339470 0
42C:\Backend\node_modules\debug\src\index.js133106201270758376 0
56C:\Backend\node_modules\iconv-lite\encodings\internal.js133106201269834619 0
42C:\Backend\node_modules\call-bind\index.js133106201269446621 0
67C:\Backend\node_modules\iconv-lite\encodings\sbcs-data-generated.js133106201270402881 0
57C:\Backend\node_modules\iconv-lite\encodings\sbcs-data.js133106201270502805 0
53C:\Backend\node_modules\body-parser\lib\types\json.js133106201267887217 0
67C:\Backend\node_modules\iconv-lite\encodings\tables\big5-added.json133106201270708408 0
71C:\Backend\node_modules\iconv-lite\encodings\tables\gb18030-ranges.json133106201271727140 0
65C:\Backend\node_modules\iconv-lite\encodings\tables\shiftjis.json133106201271917017 0
45C:\Backend\node_modules\has-symbols\.eslintrc133106201259413720 0
48C:\Backend\node_modules\has-symbols\CHANGELOG.md133106201270442846 0
43C:\Backend\node_modules\has-symbols\LICENSE133106201265476737 0
45C:\Backend\node_modules\has-symbols\README.md133106201270512800 0
44C:\Backend\node_modules\has-symbols\shams.js133106201269814646 0
44C:\Backend\node_modules\forwarded\HISTORY.md133106201267179194 0
40C:\Backend\node_modules\has-symbols\test133106201269944553 1
57C:\Backend\node_modules\get-intrinsic\.github\FUNDING.yml133106201270014492 0
46C:\Backend\node_modules\has-symbols\test\shams133106201268266978 1
74C:\Backend\node_modules\has-symbols\test\shams\get-own-property-symbols.js133106201268538227 0
49C:\Backend\node_modules\content-type\package.json133106201264452013 0
43C:\Backend\node_modules\call-bind\.eslintrc133106201263908403 0
55C:\Backend\node_modules\has-symbols\.github\FUNDING.yml133106201270608491 0
51C:\Backend\node_modules\cookie-signature\History.md133106201268321778 0
39C:\Backend\node_modules\has\LICENSE-MIT133106201263908403 0
40C:\Backend\node_modules\has\package.json133106201259443699 0
41C:\Backend\node_modules\has\test\index.js133106201268465385 0
40C:\Backend\node_modules\has\src\index.js133106201267279140 0
47C:\Backend\node_modules\get-intrinsic\.eslintrc133106201259453688 0
50C:\Backend\node_modules\get-intrinsic\CHANGELOG.md133106201269574774 0
46C:\Backend\node_modules\get-intrinsic\index.js133106201268508204 0
50C:\Backend\node_modules\get-intrinsic\package.json133106201269082713 0
47C:\Backend\node_modules\get-intrinsic\README.md133106201269794647 0
42C:\Backend\node_modules\get-intrinsic\test133106201267089248 1
58C:\Backend\node_modules\get-intrinsic\test\GetIntrinsic.js133106201267289118 0
38C:\Backend\node_modules\debug\Makefile133106201269864597 0
51C:\Backend\node_modules\function-bind\.editorconfig133106201269794647 0
48C:\Backend\node_modules\function-bind\.npmignore133106201263908403 0
47C:\Backend\node_modules\body-parser\SECURITY.md133106201270648444 0
48C:\Backend\node_modules\function-bind\.jscs.json133106201270014492 0
49C:\Backend\node_modules\function-bind\.travis.yml133106201269319480 0
55C:\Backend\node_modules\function-bind\implementation.js133106201268057121 0
46C:\Backend\node_modules\function-bind\index.js133106201268822862 0
51C:\Backend\node_modules\call-bind\test\callBound.js133106201268942792 0
45C:\Backend\node_modules\function-bind\LICENSE133106201267119251 0
41C:\Backend\node_modules\cors\lib\index.js133106236155383836 0
50C:\Backend\node_modules\function-bind\package.json133106201259453688 0
47C:\Backend\node_modules\function-bind\README.md133106201265516712 0
42C:\Backend\node_modules\function-bind\test133106201270392842 1
37C:\Backend\node_modules\debug\LICENSE133106201268508204 0
51C:\Backend\node_modules\function-bind\test\index.js133106201270284341 0
40C:\Backend\node_modules\fresh\HISTORY.md133106201268912829 0
38C:\Backend\node_modules\fresh\index.js133106201268197040 0
37C:\Backend\node_modules\fresh\LICENSE133106201267249140 0
39C:\Backend\node_modules\fresh\README.md133106201266021213 0
42C:\Backend\node_modules\forwarded\index.js133106201264232144 0
41C:\Backend\node_modules\forwarded\LICENSE133106201259533644 0
46C:\Backend\node_modules\forwarded\package.json133106201265566690 0
45C:\Backend\node_modules\finalhandler\index.js133106201266582334 0
44C:\Backend\node_modules\finalhandler\LICENSE133106201264332082 0
49C:\Backend\node_modules\finalhandler\package.json133106201267577426 0
46C:\Backend\node_modules\finalhandler\README.md133106201269042743 0
42C:\Backend\node_modules\express\History.md133106201271222003 0
40C:\Backend\node_modules\express\index.js133106201268802834 0
39C:\Backend\node_modules\express\LICENSE133106201264891921 0
44C:\Backend\node_modules\express\package.json133106201270938277 0
50C:\Backend\node_modules\express\lib\application.js133106201267079284 0
42C:\Backend\node_modules\express\lib\router133106201270668463 1
44C:\Backend\node_modules\express\lib\utils.js133106201270758376 0
43C:\Backend\node_modules\express\lib\view.js133106201270878309 0
51C:\Backend\node_modules\express\lib\router\route.js133106201270708408 0
54C:\Backend\node_modules\express\lib\middleware\init.js133106201269804627 0
37C:\Backend\node_modules\debug\node.js133106201269466591 0
55C:\Backend\node_modules\express\lib\middleware\query.js133106201270254363 0
36C:\Backend\node_modules\etag\LICENSE133106201267279140 0
49C:\Backend\node_modules\cookie-signature\index.js133106201267487474 0
40C:\Backend\node_modules\bytes\History.md133106201267677360 0
45C:\Backend\node_modules\escape-html\Readme.md133106201268548204 0
46C:\Backend\node_modules\call-bind\package.json133106201269944553 0
42C:\Backend\node_modules\encodeurl\index.js133106201268311793 0
43C:\Backend\node_modules\encodeurl\README.md133106201266091213 0
41C:\Backend\node_modules\ee-first\index.js133106201267239157 0
40C:\Backend\node_modules\ee-first\LICENSE133106201265992117 0
45C:\Backend\node_modules\ee-first\package.json133106201259553625 0
42C:\Backend\node_modules\ee-first\README.md133106201264242141 0
44C:\Backend\node_modules\debug\component.json133106201270184400 0
40C:\Backend\node_modules\destroy\index.js133106201264771979 0
41C:\Backend\node_modules\destroy\README.md133106201267439029 0
37C:\Backend\node_modules\depd\index.js133106201267607415 0
32C:\Backend\node_modules\depd\lib133106201269456593 1
36C:\Backend\node_modules\depd\LICENSE133106201268508204 0
41C:\Backend\node_modules\depd\package.json133106201264382052 0
40C:\Backend\node_modules\depd\lib\browser133106201269574774 1
44C:\Backend\node_modules\debug\.coveralls.yml133106201270044497 0
40C:\Backend\node_modules\debug\.npmignore133106201266071222 0
44C:\Backend\node_modules\debug\src\browser.js133106201270648444 0
42C:\Backend\node_modules\debug\src\debug.js133106201270708408 0
50C:\Backend\node_modules\debug\src\inspector-log.js133106201270828361 0
41C:\Backend\node_modules\cors\package.json133106236154584329 0
42C:\Backend\node_modules\bytes\package.json133106201266652348 0
41C:\Backend\node_modules\cookie\HISTORY.md133106201268415376 0
43C:\Backend\node_modules\cookie\package.json133106201267517463 0
47C:\Backend\node_modules\content-type\HISTORY.md133106201269092699 0
54C:\Backend\node_modules\content-disposition\HISTORY.md133106201268678131 0
52C:\Backend\node_modules\content-disposition\index.js133106201266732294 0
51C:\Backend\node_modules\content-disposition\LICENSE133106201264881926 0
56C:\Backend\node_modules\content-disposition\package.json133106201267777289 0
53C:\Backend\node_modules\content-disposition\README.md133106201269172647 0
45C:\Backend\node_modules\array-flatten\LICENSE133106201267547425 0
47C:\Backend\node_modules\call-bind\.eslintignore133106201259483672 0
41C:\Backend\node_modules\call-bind\.github133106201270442846 1
46C:\Backend\node_modules\call-bind\callBound.js133106201267997158 0
41C:\Backend\node_modules\call-bind\LICENSE133106201267099234 0
37C:\Backend\node_modules\bytes\LICENSE133106201263307695 0
39C:\Backend\node_modules\bytes\Readme.md133106201268758096 0
44C:\Backend\node_modules\body-parser\index.js133106201266181270 0
39C:\Backend\node_modules\body-parser\lib133106201269319480 1
45C:\Backend\node_modules\body-parser\README.md133106201270578510 0
45C:\Backend\node_modules\body-parser\lib\types133106201269874590 1
50C:\Backend\node_modules\array-flatten\package.json133106201264851939 0
47C:\Backend\node_modules\array-flatten\README.md133106201266241125 0
42C:\Backend\node_modules\accepts\HISTORY.md133106201268658146 0
37C:\Backend\node_modules\.bin\mime.ps1133106201272353018 0
39C:\Backend\dist\Backend.3464ddca.js.map133125248300980917 0
